^C:\USERS\JAMIL\SOURCE\REPOS\SIMPLENEURALNETWORK\SIMPLENEURALNETWORK\SRC\DATASET.CPP
/c /IC:\USERS\JAMIL\SOURCE\REPOS\SIMPLENEURALNETWORK\SIMPLENEURALNETWORK\INCLUDE /ZI /JMC /nologo /W3 /WX- /diagnostics:column /sdl /Od /Oy- /D WIN32 /D _DEBUG /D _CONSOLE /D _UNICODE /D UNICODE /Gm- /EHsc /RTC1 /MDd /GS /fp:precise /permissive- /Zc:wchar_t /Zc:forScope /Zc:inline /std:c++17 /Fo"C:\USERS\JAMIL\SOURCE\REPOS\SIMPLENEURALNETWORK\SIMPLENEURALNETWORK\BIN\INTERMEDIATES\WIN32\DEBUG\\" /Fd"C:\USERS\JAMIL\SOURCE\REPOS\SIMPLENEURALNETWORK\SIMPLENEURALNETWORK\BIN\INTERMEDIATES\WIN32\DEBUG\VC142.PDB" /Gd /TP /analyze- /FC C:\USERS\JAMIL\SOURCE\REPOS\SIMPLENEURALNETWORK\SIMPLENEURALNETWORK\SRC\DATASET.CPP
^C:\USERS\JAMIL\SOURCE\REPOS\SIMPLENEURALNETWORK\SIMPLENEURALNETWORK\SRC\XOR.CPP
/c /IC:\USERS\JAMIL\SOURCE\REPOS\SIMPLENEURALNETWORK\SIMPLENEURALNETWORK\INCLUDE /ZI /JMC /nologo /W3 /WX- /diagnostics:column /sdl /Od /Oy- /D WIN32 /D _DEBUG /D _CONSOLE /D _UNICODE /D UNICODE /Gm- /EHsc /RTC1 /MDd /GS /fp:precise /permissive- /Zc:wchar_t /Zc:forScope /Zc:inline /std:c++17 /Fo"C:\USERS\JAMIL\SOURCE\REPOS\SIMPLENEURALNETWORK\SIMPLENEURALNETWORK\BIN\INTERMEDIATES\WIN32\DEBUG\\" /Fd"C:\USERS\JAMIL\SOURCE\REPOS\SIMPLENEURALNETWORK\SIMPLENEURALNETWORK\BIN\INTERMEDIATES\WIN32\DEBUG\VC142.PDB" /Gd /TP /analyze- /FC C:\USERS\JAMIL\SOURCE\REPOS\SIMPLENEURALNETWORK\SIMPLENEURALNETWORK\SRC\XOR.CPP
^C:\USERS\JAMIL\SOURCE\REPOS\SIMPLENEURALNETWORK\SIMPLENEURALNETWORK\SRC\MNIST.CPP
/c /IC:\USERS\JAMIL\SOURCE\REPOS\SIMPLENEURALNETWORK\SIMPLENEURALNETWORK\INCLUDE /ZI /JMC /nologo /W3 /WX- /diagnostics:column /sdl /Od /Oy- /D WIN32 /D _DEBUG /D _CONSOLE /D _UNICODE /D UNICODE /Gm- /EHsc /RTC1 /MDd /GS /fp:precise /permissive- /Zc:wchar_t /Zc:forScope /Zc:inline /std:c++17 /Fo"C:\USERS\JAMIL\SOURCE\REPOS\SIMPLENEURALNETWORK\SIMPLENEURALNETWORK\BIN\INTERMEDIATES\WIN32\DEBUG\\" /Fd"C:\USERS\JAMIL\SOURCE\REPOS\SIMPLENEURALNETWORK\SIMPLENEURALNETWORK\BIN\INTERMEDIATES\WIN32\DEBUG\VC142.PDB" /Gd /TP /analyze- /FC C:\USERS\JAMIL\SOURCE\REPOS\SIMPLENEURALNETWORK\SIMPLENEURALNETWORK\SRC\MNIST.CPP
^C:\USERS\JAMIL\SOURCE\REPOS\SIMPLENEURALNETWORK\SIMPLENEURALNETWORK\SRC\NEURON.CPP
/c /IC:\USERS\JAMIL\SOURCE\REPOS\SIMPLENEURALNETWORK\SIMPLENEURALNETWORK\INCLUDE /ZI /JMC /nologo /W3 /WX- /diagnostics:column /sdl /Od /Oy- /D WIN32 /D _DEBUG /D _CONSOLE /D _UNICODE /D UNICODE /Gm- /EHsc /RTC1 /MDd /GS /fp:precise /permissive- /Zc:wchar_t /Zc:forScope /Zc:inline /std:c++17 /Fo"C:\USERS\JAMIL\SOURCE\REPOS\SIMPLENEURALNETWORK\SIMPLENEURALNETWORK\BIN\INTERMEDIATES\WIN32\DEBUG\\" /Fd"C:\USERS\JAMIL\SOURCE\REPOS\SIMPLENEURALNETWORK\SIMPLENEURALNETWORK\BIN\INTERMEDIATES\WIN32\DEBUG\VC142.PDB" /Gd /TP /analyze- /FC C:\USERS\JAMIL\SOURCE\REPOS\SIMPLENEURALNETWORK\SIMPLENEURALNETWORK\SRC\NEURON.CPP
^C:\USERS\JAMIL\SOURCE\REPOS\SIMPLENEURALNETWORK\SIMPLENEURALNETWORK\MAIN.CPP
/c /IC:\USERS\JAMIL\SOURCE\REPOS\SIMPLENEURALNETWORK\SIMPLENEURALNETWORK\INCLUDE /ZI /JMC /nologo /W3 /WX- /diagnostics:column /sdl /Od /Oy- /D WIN32 /D _DEBUG /D _CONSOLE /D _UNICODE /D UNICODE /Gm- /EHsc /RTC1 /MDd /GS /fp:precise /permissive- /Zc:wchar_t /Zc:forScope /Zc:inline /std:c++17 /Fo"C:\USERS\JAMIL\SOURCE\REPOS\SIMPLENEURALNETWORK\SIMPLENEURALNETWORK\BIN\INTERMEDIATES\WIN32\DEBUG\\" /Fd"C:\USERS\JAMIL\SOURCE\REPOS\SIMPLENEURALNETWORK\SIMPLENEURALNETWORK\BIN\INTERMEDIATES\WIN32\DEBUG\VC142.PDB" /Gd /TP /analyze- /FC C:\USERS\JAMIL\SOURCE\REPOS\SIMPLENEURALNETWORK\SIMPLENEURALNETWORK\MAIN.CPP
^C:\USERS\JAMIL\SOURCE\REPOS\SIMPLENEURALNETWORK\SIMPLENEURALNETWORK\SRC\PERCEPTRON.CPP
/c /IC:\USERS\JAMIL\SOURCE\REPOS\SIMPLENEURALNETWORK\SIMPLENEURALNETWORK\INCLUDE /ZI /JMC /nologo /W3 /WX- /diagnostics:column /sdl /Od /Oy- /D WIN32 /D _DEBUG /D _CONSOLE /D _UNICODE /D UNICODE /Gm- /EHsc /RTC1 /MDd /GS /fp:precise /permissive- /Zc:wchar_t /Zc:forScope /Zc:inline /std:c++17 /Fo"C:\USERS\JAMIL\SOURCE\REPOS\SIMPLENEURALNETWORK\SIMPLENEURALNETWORK\BIN\INTERMEDIATES\WIN32\DEBUG\\" /Fd"C:\USERS\JAMIL\SOURCE\REPOS\SIMPLENEURALNETWORK\SIMPLENEURALNETWORK\BIN\INTERMEDIATES\WIN32\DEBUG\VC142.PDB" /Gd /TP /analyze- /FC C:\USERS\JAMIL\SOURCE\REPOS\SIMPLENEURALNETWORK\SIMPLENEURALNETWORK\SRC\PERCEPTRON.CPP
